C:\Users\lward\JavaScheduler\student-scheduler\ssuschedule2\src\main\java\com\lpward\solver\AllBestSolutionsRecaller.java
C:\Users\lward\JavaScheduler\student-scheduler\ssuschedule2\src\main\java\com\lpward\domain\AbstractIdentifiable.java
C:\Users\lward\JavaScheduler\student-scheduler\ssuschedule2\src\main\java\com\lpward\domain\course\Instructor.java
C:\Users\lward\JavaScheduler\student-scheduler\ssuschedule2\src\main\java\com\lpward\domain\SectionAssignment.java
C:\Users\lward\JavaScheduler\student-scheduler\ssuschedule2\src\main\java\com\lpward\domain\StudentPreferences.java
C:\Users\lward\JavaScheduler\student-scheduler\ssuschedule2\src\main\java\com\lpward\domain\StudentSchedule.java
C:\Users\lward\JavaScheduler\student-scheduler\ssuschedule2\src\main\java\com\lpward\domain\course\Section.java
C:\Users\lward\JavaScheduler\student-scheduler\ssuschedule2\src\main\java\com\lpward\domain\StudentScheduleList.java
C:\Users\lward\JavaScheduler\student-scheduler\ssuschedule2\src\main\java\com\lpward\App\TkGetCourseList.java
C:\Users\lward\JavaScheduler\student-scheduler\ssuschedule2\src\main\java\com\lpward\App\TkGenerateSchedule.java
C:\Users\lward\JavaScheduler\student-scheduler\ssuschedule2\src\main\java\com\lpward\solver\MultiSolutionSolver.java
C:\Users\lward\JavaScheduler\student-scheduler\ssuschedule2\src\main\java\com\lpward\App\CourseInfoRetriever.java
C:\Users\lward\JavaScheduler\student-scheduler\ssuschedule2\src\main\java\com\lpward\input\XML.java
C:\Users\lward\JavaScheduler\student-scheduler\ssuschedule2\src\main\java\com\lpward\domain\course\Course.java
C:\Users\lward\JavaScheduler\student-scheduler\ssuschedule2\src\main\java\com\lpward\solver\SchedulerConstraintConfiguration.java
C:\Users\lward\JavaScheduler\student-scheduler\ssuschedule2\src\main\java\com\lpward\solver\ScheduleSolver.java
C:\Users\lward\JavaScheduler\student-scheduler\ssuschedule2\src\main\java\com\lpward\domain\DaysTimesRoom.java
C:\Users\lward\JavaScheduler\student-scheduler\ssuschedule2\src\main\java\com\lpward\output\WeeklyView.java
C:\Users\lward\JavaScheduler\student-scheduler\ssuschedule2\src\main\java\com\lpward\input\SemesterSchedule.java
C:\Users\lward\JavaScheduler\student-scheduler\ssuschedule2\src\main\java\com\lpward\App\App.java
